<?xml version="1.0" encoding="utf-8"?>
<!-- Generator: Adobe Illustrator 15.1.0, SVG Export Plug-In . SVG Version: 6.00 Build 0)  -->
<!DOCTYPE svg PUBLIC "-//W3C//DTD SVG 1.1//EN" "http://www.w3.org/Graphics/SVG/1.1/DTD/svg11.dtd">
<svg version="1.1" id="Layer_1" xmlns="http://www.w3.org/2000/svg" xmlns:xlink="http://www.w3.org/1999/xlink" x="0px" y="0px"
	 width="503.448px" height="112.672px" viewBox="0 0 503.448 112.672" enable-background="new 0 0 503.448 112.672"
	 xml:space="preserve">
<g>
	<g>
		<path fill="#7DB9D1" d="M32.672,55.741h20.493L38.32,40.896c-8.539-8.538-22.381-8.535-30.917,0.001
			c-8.536,8.536-8.539,22.378,0,30.918c0.6,0.599,1.229,1.152,1.878,1.668C12.15,63.26,21.547,55.741,32.672,55.741"/>
		<path fill="#7DB9D1" d="M39.175,72.668l14.492-14.491H32.672c-12.075,0-21.861,9.79-21.861,21.863
			c0,12.072,9.786,21.86,21.861,21.86c0.849,0,1.684-0.053,2.508-0.147C29.98,92.497,31.308,80.535,39.175,72.668"/>
		<path fill="#7DB9D1" d="M55.742,80.039V59.547L40.896,74.391c-8.536,8.537-8.533,22.383,0,30.917
			c8.539,8.54,22.381,8.538,30.918,0c0.6-0.601,1.153-1.229,1.668-1.877C63.262,100.562,55.742,91.165,55.742,80.039"/>
		<path fill="#7DB9D1" d="M89.849,80.653c-6.49,0-12.592-2.527-17.18-7.117L58.178,59.045v20.994
			c0,12.073,9.792,21.862,21.861,21.862c12.076,0,21.862-9.789,21.862-21.862c0-0.845-0.053-1.678-0.146-2.498
			C98.16,79.568,94.089,80.653,89.849,80.653"/>
		<path fill="#7DB9D1" d="M105.309,40.897c-0.601-0.601-1.229-1.153-1.878-1.668C100.562,49.45,91.165,56.97,80.04,56.97H59.546
			l14.844,14.846c8.538,8.538,22.382,8.535,30.918,0C113.845,63.277,113.847,49.437,105.309,40.897"/>
		<path fill="#007DA5" d="M40.897,7.403c8.536-8.536,22.378-8.54,30.918,0c8.533,8.533,8.536,22.38,0,30.918L56.356,53.779
			L40.897,38.321C32.358,29.782,32.361,15.94,40.897,7.403"/>
		<path fill="#7DB9D1" d="M80.039,10.811c-0.848,0-1.684,0.053-2.507,0.147c5.199,9.256,3.871,21.218-3.996,29.085l-14.491,14.49
			h20.994c12.075,0,21.862-9.789,21.862-21.86C101.901,20.6,92.114,10.811,80.039,10.811"/>
		<path fill="#7DB9D1" d="M22.863,32.059c4.651,0,9.098,1.304,12.937,3.728c-4.737-7.535-4.952-17.116-0.62-24.828
			c-0.824-0.095-1.659-0.147-2.507-0.147c-12.076,0-21.862,9.789-21.862,21.861c0,0.846,0.053,1.68,0.146,2.498
			C14.553,33.145,18.623,32.059,22.863,32.059"/>
		<g>
			<path fill="#007DA5" d="M157.505,14.524h6.307l13.04,33.857h-6.354l-3.177-8.962h-13.514l-3.177,8.962h-6.117L157.505,14.524z
				 M155.419,34.915h10.337l-5.074-14.558h-0.142L155.419,34.915z"/>
			<path fill="#007DA5" d="M201.984,48.382h-5.122v-3.319h-0.095c-0.728,1.423-1.786,2.442-3.177,3.059s-2.861,0.925-4.41,0.925
				c-1.929,0-3.612-0.34-5.05-1.02c-1.439-0.68-2.632-1.604-3.58-2.774c-0.948-1.169-1.66-2.553-2.134-4.149
				c-0.474-1.596-0.711-3.311-0.711-5.145c0-2.213,0.3-4.126,0.901-5.737c0.6-1.612,1.399-2.94,2.395-3.983
				c0.996-1.044,2.134-1.81,3.415-2.3s2.584-0.735,3.912-0.735c0.759,0,1.533,0.071,2.323,0.214c0.79,0.142,1.549,0.371,2.276,0.688
				c0.727,0.316,1.399,0.719,2.015,1.209c0.617,0.49,1.13,1.066,1.541,1.73h0.095V14.524h5.406V48.382z M183.111,36.385
				c0,1.043,0.134,2.071,0.403,3.082c0.268,1.013,0.679,1.913,1.233,2.703c0.553,0.791,1.256,1.423,2.11,1.896
				c0.854,0.475,1.865,0.712,3.035,0.712c1.201,0,2.236-0.253,3.106-0.759c0.869-0.506,1.58-1.17,2.134-1.992
				c0.553-0.821,0.964-1.746,1.233-2.773c0.268-1.027,0.403-2.078,0.403-3.153c0-2.719-0.609-4.837-1.826-6.354
				c-1.217-1.518-2.869-2.276-4.955-2.276c-1.265,0-2.332,0.261-3.201,0.782c-0.87,0.522-1.581,1.202-2.134,2.039
				c-0.553,0.838-0.948,1.787-1.186,2.846C183.23,34.196,183.111,35.278,183.111,36.385z"/>
			<path fill="#007DA5" d="M204.07,23.866h5.88l6.212,18.825h0.095l5.975-18.825h5.596l-8.773,24.516h-6.069L204.07,23.866z"/>
			<path fill="#007DA5" d="M248.55,42.929c0,0.664,0.086,1.138,0.261,1.423c0.173,0.284,0.513,0.427,1.02,0.427
				c0.158,0,0.347,0,0.569,0c0.221,0,0.474-0.031,0.759-0.095v3.746c-0.19,0.062-0.435,0.134-0.735,0.213
				c-0.301,0.078-0.609,0.149-0.925,0.214c-0.316,0.062-0.633,0.11-0.948,0.142c-0.316,0.031-0.585,0.048-0.806,0.048
				c-1.107,0-2.023-0.222-2.75-0.664c-0.728-0.442-1.202-1.217-1.422-2.323c-1.075,1.043-2.395,1.802-3.96,2.275
				c-1.564,0.475-3.075,0.712-4.528,0.712c-1.107,0-2.166-0.15-3.177-0.45c-1.012-0.301-1.905-0.743-2.679-1.328
				c-0.775-0.585-1.391-1.328-1.849-2.229c-0.458-0.901-0.688-1.952-0.688-3.153c0-1.518,0.276-2.751,0.83-3.699
				c0.553-0.948,1.28-1.69,2.181-2.229c0.901-0.537,1.913-0.925,3.035-1.162c1.122-0.236,2.252-0.418,3.391-0.545
				c0.979-0.189,1.912-0.324,2.797-0.403c0.885-0.078,1.667-0.213,2.347-0.403c0.68-0.189,1.217-0.481,1.612-0.877
				c0.395-0.395,0.593-0.987,0.593-1.778c0-0.694-0.166-1.264-0.498-1.707c-0.332-0.442-0.743-0.782-1.233-1.02
				c-0.491-0.237-1.036-0.395-1.636-0.474c-0.601-0.079-1.17-0.119-1.707-0.119c-1.518,0-2.767,0.316-3.746,0.948
				c-0.98,0.633-1.534,1.612-1.66,2.94h-5.406c0.095-1.58,0.474-2.893,1.138-3.936c0.664-1.044,1.509-1.881,2.537-2.514
				c1.027-0.632,2.189-1.074,3.485-1.328c1.296-0.252,2.624-0.379,3.983-0.379c1.201,0,2.386,0.127,3.556,0.379
				c1.169,0.254,2.221,0.664,3.154,1.233c0.932,0.569,1.683,1.304,2.252,2.205c0.569,0.9,0.854,2,0.854,3.296V42.929z
				 M243.144,36.101c-0.822,0.537-1.833,0.861-3.035,0.972c-1.202,0.111-2.403,0.277-3.604,0.498
				c-0.569,0.095-1.122,0.229-1.66,0.403s-1.012,0.411-1.422,0.711c-0.411,0.301-0.735,0.695-0.972,1.186
				c-0.237,0.49-0.355,1.083-0.355,1.778c0,0.601,0.173,1.106,0.521,1.518c0.348,0.411,0.766,0.734,1.257,0.972
				c0.49,0.237,1.027,0.403,1.612,0.498s1.115,0.143,1.589,0.143c0.6,0,1.249-0.079,1.944-0.237
				c0.695-0.158,1.351-0.427,1.968-0.807c0.616-0.379,1.13-0.86,1.541-1.446c0.411-0.584,0.616-1.304,0.616-2.157V36.101z"/>
			<path fill="#007DA5" d="M253.955,23.866h5.121v3.604l0.096,0.095c0.82-1.358,1.896-2.426,3.224-3.2
				c1.328-0.774,2.798-1.162,4.41-1.162c2.687,0,4.805,0.695,6.354,2.087c1.549,1.391,2.323,3.478,2.323,6.259v16.834h-5.405V32.971
				c-0.064-1.928-0.475-3.327-1.233-4.196s-1.944-1.305-3.557-1.305c-0.917,0-1.739,0.166-2.466,0.498
				c-0.728,0.332-1.344,0.791-1.85,1.375c-0.506,0.586-0.9,1.273-1.186,2.062c-0.284,0.791-0.426,1.629-0.426,2.514v14.463h-5.406
				V23.866z"/>
			<path fill="#007DA5" d="M297.296,32.069c-0.222-1.518-0.83-2.663-1.825-3.438c-0.996-0.774-2.253-1.162-3.771-1.162
				c-0.695,0-1.438,0.119-2.229,0.355c-0.79,0.237-1.518,0.681-2.181,1.328c-0.664,0.648-1.218,1.549-1.66,2.703
				c-0.443,1.154-0.664,2.663-0.664,4.528c0,1.012,0.119,2.023,0.355,3.035c0.237,1.012,0.617,1.913,1.139,2.702
				c0.521,0.791,1.192,1.431,2.016,1.921c0.82,0.49,1.816,0.735,2.986,0.735c1.58,0,2.885-0.49,3.912-1.471
				c1.027-0.979,1.668-2.354,1.921-4.125h5.405c-0.506,3.193-1.715,5.636-3.627,7.326c-1.913,1.691-4.45,2.537-7.611,2.537
				c-1.928,0-3.627-0.325-5.098-0.973c-1.47-0.647-2.711-1.532-3.723-2.655c-1.012-1.122-1.777-2.457-2.299-4.007
				c-0.521-1.549-0.783-3.225-0.783-5.026c0-1.833,0.253-3.557,0.76-5.169c0.505-1.612,1.264-3.011,2.275-4.196
				s2.268-2.117,3.77-2.798c1.502-0.68,3.264-1.02,5.287-1.02c1.424,0,2.774,0.183,4.055,0.545c1.281,0.364,2.418,0.909,3.414,1.637
				s1.81,1.644,2.442,2.75c0.632,1.107,1.012,2.418,1.138,3.936H297.296z"/>
			<path fill="#007DA5" d="M311.759,37.522c0,0.949,0.134,1.866,0.403,2.751c0.268,0.885,0.671,1.659,1.209,2.323
				c0.537,0.664,1.217,1.193,2.039,1.589s1.802,0.593,2.939,0.593c1.581,0,2.854-0.34,3.818-1.02
				c0.963-0.68,1.683-1.699,2.156-3.059h5.122c-0.284,1.327-0.774,2.513-1.47,3.557c-0.696,1.043-1.534,1.92-2.514,2.631
				c-0.98,0.712-2.079,1.25-3.295,1.612c-1.218,0.363-2.49,0.546-3.818,0.546c-1.928,0-3.635-0.316-5.121-0.948
				c-1.486-0.633-2.742-1.518-3.77-2.656c-1.027-1.138-1.802-2.496-2.324-4.077c-0.521-1.581-0.781-3.32-0.781-5.217
				c0-1.738,0.275-3.391,0.83-4.955c0.553-1.564,1.343-2.94,2.37-4.126c1.026-1.185,2.269-2.125,3.723-2.821
				c1.454-0.694,3.098-1.043,4.932-1.043c1.928,0,3.659,0.403,5.192,1.209c1.533,0.807,2.805,1.873,3.816,3.201
				c1.012,1.327,1.747,2.854,2.205,4.576c0.459,1.723,0.577,3.501,0.356,5.334H311.759z M324.373,33.967
				c-0.064-0.854-0.246-1.676-0.546-2.466c-0.301-0.79-0.712-1.478-1.233-2.063c-0.521-0.584-1.154-1.059-1.896-1.422
				c-0.743-0.363-1.572-0.546-2.489-0.546c-0.948,0-1.81,0.166-2.585,0.498c-0.774,0.332-1.438,0.791-1.991,1.375
				c-0.554,0.586-0.995,1.273-1.327,2.062c-0.332,0.791-0.515,1.645-0.546,2.562H324.373z"/>
			<path fill="#007DA5" d="M371.649,25.289c-0.253-0.979-0.601-1.881-1.044-2.703c-0.442-0.822-1.012-1.533-1.707-2.134
				s-1.51-1.067-2.441-1.399c-0.933-0.332-2.016-0.498-3.248-0.498c-1.803,0-3.359,0.364-4.671,1.091
				c-1.312,0.728-2.38,1.7-3.2,2.917c-0.823,1.217-1.432,2.601-1.826,4.148c-0.396,1.55-0.593,3.13-0.593,4.742
				s0.196,3.193,0.593,4.742c0.395,1.549,1.003,2.933,1.826,4.149c0.82,1.217,1.888,2.189,3.2,2.916
				c1.312,0.728,2.868,1.091,4.671,1.091c1.328,0,2.496-0.229,3.509-0.688c1.011-0.458,1.88-1.091,2.608-1.897
				c0.727-0.806,1.295-1.746,1.707-2.821c0.41-1.074,0.68-2.229,0.806-3.462h5.785c-0.126,2.023-0.562,3.873-1.304,5.549
				c-0.743,1.676-1.747,3.122-3.012,4.339c-1.264,1.217-2.75,2.157-4.457,2.821s-3.588,0.995-5.643,0.995
				c-2.529,0-4.798-0.467-6.805-1.398c-2.008-0.932-3.707-2.205-5.098-3.817c-1.392-1.612-2.459-3.492-3.201-5.643
				c-0.742-2.149-1.114-4.441-1.114-6.876c0-2.402,0.372-4.678,1.114-6.828c0.742-2.149,1.81-4.031,3.201-5.644
				c1.391-1.612,3.09-2.893,5.098-3.841c2.007-0.948,4.275-1.422,6.805-1.422c1.896,0,3.682,0.261,5.358,0.782
				c1.675,0.521,3.153,1.28,4.434,2.276c1.28,0.995,2.315,2.204,3.106,3.627c0.789,1.423,1.279,3.052,1.469,4.885H371.649z"/>
			<path fill="#007DA5" d="M401.428,42.929c0,0.664,0.087,1.138,0.262,1.423c0.173,0.284,0.513,0.427,1.02,0.427
				c0.157,0,0.347,0,0.568,0c0.221,0,0.475-0.031,0.759-0.095v3.746c-0.19,0.062-0.435,0.134-0.735,0.213
				c-0.301,0.078-0.609,0.149-0.924,0.214c-0.316,0.062-0.633,0.11-0.949,0.142s-0.585,0.048-0.806,0.048
				c-1.106,0-2.023-0.222-2.751-0.664c-0.727-0.442-1.201-1.217-1.422-2.323c-1.075,1.043-2.395,1.802-3.96,2.275
				c-1.564,0.475-3.075,0.712-4.528,0.712c-1.107,0-2.166-0.15-3.178-0.45c-1.012-0.301-1.904-0.743-2.679-1.328
				s-1.392-1.328-1.849-2.229c-0.459-0.901-0.688-1.952-0.688-3.153c0-1.518,0.275-2.751,0.829-3.699
				c0.553-0.948,1.28-1.69,2.181-2.229c0.902-0.537,1.913-0.925,3.035-1.162c1.122-0.236,2.253-0.418,3.391-0.545
				c0.98-0.189,1.912-0.324,2.798-0.403c0.885-0.078,1.667-0.213,2.347-0.403c0.68-0.189,1.217-0.481,1.613-0.877
				c0.395-0.395,0.592-0.987,0.592-1.778c0-0.694-0.166-1.264-0.497-1.707c-0.332-0.442-0.743-0.782-1.233-1.02
				s-1.035-0.395-1.636-0.474s-1.17-0.119-1.707-0.119c-1.518,0-2.767,0.316-3.746,0.948c-0.98,0.633-1.534,1.612-1.659,2.94h-5.406
				c0.095-1.58,0.475-2.893,1.139-3.936c0.663-1.044,1.509-1.881,2.536-2.514c1.026-0.632,2.188-1.074,3.485-1.328
				c1.296-0.252,2.623-0.379,3.983-0.379c1.201,0,2.386,0.127,3.556,0.379c1.17,0.254,2.221,0.664,3.154,1.233
				c0.932,0.569,1.684,1.304,2.252,2.205c0.569,0.9,0.854,2,0.854,3.296V42.929z M396.021,36.101
				c-0.822,0.537-1.833,0.861-3.034,0.972c-1.202,0.111-2.403,0.277-3.604,0.498c-0.568,0.095-1.121,0.229-1.659,0.403
				s-1.012,0.411-1.423,0.711c-0.41,0.301-0.734,0.695-0.972,1.186s-0.355,1.083-0.355,1.778c0,0.601,0.173,1.106,0.521,1.518
				c0.348,0.411,0.767,0.734,1.257,0.972s1.027,0.403,1.611,0.498c0.586,0.095,1.115,0.143,1.59,0.143
				c0.6,0,1.248-0.079,1.943-0.237s1.352-0.427,1.969-0.807c0.615-0.379,1.129-0.86,1.541-1.446c0.41-0.584,0.615-1.304,0.615-2.157
				V36.101z"/>
			<path fill="#007DA5" d="M406.834,23.866h5.073v4.742h0.095c0.158-0.664,0.467-1.312,0.925-1.944
				c0.458-0.632,1.011-1.209,1.659-1.731c0.648-0.521,1.367-0.939,2.158-1.256c0.789-0.316,1.596-0.475,2.418-0.475
				c0.633,0,1.067,0.017,1.305,0.048c0.236,0.031,0.481,0.063,0.734,0.095v5.216c-0.379-0.062-0.767-0.118-1.162-0.166
				c-0.395-0.047-0.781-0.071-1.161-0.071c-0.917,0-1.778,0.183-2.585,0.546c-0.806,0.363-1.51,0.9-2.109,1.612
				c-0.602,0.711-1.075,1.588-1.423,2.632c-0.349,1.043-0.521,2.244-0.521,3.604v11.665h-5.405V23.866z"/>
			<path fill="#007DA5" d="M427.413,37.522c0,0.949,0.134,1.866,0.403,2.751c0.268,0.885,0.671,1.659,1.209,2.323
				c0.537,0.664,1.217,1.193,2.039,1.589c0.821,0.396,1.802,0.593,2.94,0.593c1.58,0,2.853-0.34,3.816-1.02s1.684-1.699,2.158-3.059
				h5.121c-0.284,1.327-0.775,2.513-1.47,3.557c-0.696,1.043-1.534,1.92-2.514,2.631c-0.98,0.712-2.079,1.25-3.296,1.612
				c-1.217,0.363-2.489,0.546-3.816,0.546c-1.929,0-3.636-0.316-5.122-0.948c-1.486-0.633-2.742-1.518-3.77-2.656
				c-1.027-1.138-1.802-2.496-2.323-4.077c-0.522-1.581-0.782-3.32-0.782-5.217c0-1.738,0.275-3.391,0.829-4.955
				c0.553-1.564,1.344-2.94,2.371-4.126c1.027-1.185,2.269-2.125,3.723-2.821c1.453-0.694,3.098-1.043,4.932-1.043
				c1.928,0,3.658,0.403,5.192,1.209c1.533,0.807,2.805,1.873,3.817,3.201c1.011,1.327,1.746,2.854,2.205,4.576
				c0.458,1.723,0.576,3.501,0.355,5.334H427.413z M440.026,33.967c-0.063-0.854-0.245-1.676-0.545-2.466
				c-0.301-0.79-0.711-1.478-1.233-2.063c-0.521-0.584-1.154-1.059-1.896-1.422c-0.743-0.363-1.573-0.546-2.489-0.546
				c-0.948,0-1.811,0.166-2.585,0.498s-1.438,0.791-1.991,1.375c-0.554,0.586-0.996,1.273-1.328,2.062
				c-0.331,0.791-0.514,1.645-0.545,2.562H440.026z"/>
		</g>
	</g>
	<g>
		<path fill="#007DA5" d="M148.448,59.029h14.036c2.592,0,4.836,0.443,6.733,1.328s3.445,2.095,4.647,3.627
			c1.201,1.534,2.094,3.328,2.679,5.383c0.584,2.055,0.877,4.252,0.877,6.591c0,2.34-0.293,4.537-0.877,6.591
			c-0.585,2.056-1.478,3.85-2.679,5.383c-1.202,1.533-2.75,2.742-4.647,3.627c-1.897,0.886-4.142,1.328-6.733,1.328h-14.036V59.029z
			 M154.375,88.05h5.833c2.307,0,4.197-0.308,5.667-0.925c1.47-0.616,2.624-1.47,3.462-2.561c0.837-1.091,1.406-2.371,1.707-3.841
			c0.3-1.47,0.45-3.059,0.45-4.766s-0.15-3.296-0.45-4.766c-0.301-1.47-0.87-2.75-1.707-3.841c-0.838-1.091-1.992-1.944-3.462-2.561
			c-1.47-0.616-3.359-0.925-5.667-0.925h-5.833V88.05z"/>
		<path fill="#007DA5" d="M182.542,59.029h5.406v5.121h-5.406V59.029z M182.542,68.371h5.406v24.516h-5.406V68.371z"/>
		<path fill="#007DA5" d="M194.254,68.371h5.074v4.742h0.095c0.158-0.664,0.466-1.312,0.925-1.944
			c0.458-0.632,1.011-1.209,1.66-1.731c0.647-0.521,1.367-0.939,2.158-1.256c0.79-0.316,1.596-0.475,2.418-0.475
			c0.632,0,1.067,0.017,1.304,0.048c0.237,0.031,0.482,0.063,0.735,0.095v5.216c-0.379-0.062-0.767-0.118-1.162-0.166
			c-0.396-0.047-0.782-0.071-1.162-0.071c-0.917,0-1.778,0.183-2.584,0.546s-1.51,0.9-2.11,1.612
			c-0.601,0.711-1.075,1.588-1.423,2.632c-0.348,1.043-0.521,2.244-0.521,3.604v11.665h-5.406V68.371z"/>
		<path fill="#007DA5" d="M214.833,82.027c0,0.949,0.134,1.866,0.403,2.751c0.268,0.885,0.671,1.659,1.209,2.323
			c0.537,0.664,1.217,1.193,2.039,1.589c0.822,0.396,1.802,0.593,2.94,0.593c1.581,0,2.853-0.34,3.817-1.02
			c0.964-0.68,1.683-1.699,2.157-3.059h5.122c-0.285,1.327-0.775,2.513-1.47,3.557c-0.696,1.043-1.534,1.92-2.513,2.631
			c-0.98,0.712-2.079,1.25-3.295,1.612c-1.217,0.363-2.49,0.546-3.817,0.546c-1.929,0-3.636-0.316-5.121-0.948
			c-1.486-0.633-2.743-1.518-3.77-2.656c-1.028-1.138-1.802-2.496-2.324-4.077c-0.521-1.581-0.782-3.32-0.782-5.217
			c0-1.738,0.276-3.391,0.83-4.955c0.553-1.564,1.343-2.94,2.371-4.126c1.027-1.185,2.268-2.125,3.723-2.821
			c1.454-0.694,3.098-1.043,4.932-1.043c1.928,0,3.659,0.403,5.192,1.209c1.533,0.807,2.805,1.873,3.817,3.201
			c1.012,1.327,1.747,2.854,2.205,4.576c0.458,1.723,0.577,3.501,0.356,5.334H214.833z M227.447,78.472
			c-0.064-0.854-0.246-1.676-0.545-2.466c-0.301-0.79-0.711-1.478-1.233-2.063c-0.521-0.584-1.154-1.059-1.897-1.422
			c-0.743-0.363-1.573-0.546-2.489-0.546c-0.949,0-1.81,0.166-2.584,0.498c-0.775,0.332-1.439,0.791-1.992,1.375
			c-0.553,0.586-0.996,1.273-1.328,2.062c-0.332,0.791-0.514,1.645-0.545,2.562H227.447z"/>
		<path fill="#007DA5" d="M254.002,76.574c-0.222-1.518-0.83-2.663-1.826-3.438c-0.995-0.774-2.252-1.162-3.77-1.162
			c-0.695,0-1.438,0.119-2.229,0.355c-0.791,0.237-1.518,0.681-2.181,1.328c-0.664,0.648-1.217,1.549-1.66,2.703
			c-0.443,1.154-0.664,2.663-0.664,4.528c0,1.012,0.119,2.023,0.355,3.035c0.237,1.012,0.617,1.913,1.138,2.702
			c0.521,0.791,1.193,1.431,2.016,1.921c0.821,0.49,1.817,0.735,2.987,0.735c1.58,0,2.884-0.49,3.913-1.471
			c1.026-0.979,1.666-2.354,1.92-4.125h5.406c-0.506,3.193-1.716,5.636-3.628,7.326c-1.913,1.691-4.45,2.537-7.611,2.537
			c-1.929,0-3.627-0.325-5.098-0.973s-2.711-1.532-3.723-2.655c-1.012-1.122-1.778-2.457-2.3-4.007
			c-0.521-1.549-0.782-3.225-0.782-5.026c0-1.833,0.252-3.557,0.759-5.169c0.505-1.612,1.264-3.011,2.276-4.196
			s2.268-2.117,3.77-2.798c1.501-0.68,3.264-1.02,5.287-1.02c1.423,0,2.774,0.183,4.055,0.545c1.279,0.364,2.418,0.909,3.414,1.637
			c0.995,0.728,1.809,1.644,2.441,2.75c0.633,1.107,1.012,2.418,1.139,3.936H254.002z"/>
		<path fill="#007DA5" d="M261.779,68.371h4.078v-7.351h5.405v7.351h4.884v4.03h-4.884v13.088c0,0.569,0.023,1.06,0.071,1.47
			c0.047,0.411,0.158,0.759,0.332,1.044c0.173,0.284,0.434,0.497,0.782,0.64c0.347,0.143,0.821,0.214,1.423,0.214
			c0.379,0,0.758-0.008,1.138-0.024c0.38-0.016,0.759-0.07,1.138-0.166v4.173c-0.601,0.063-1.186,0.126-1.754,0.19
			c-0.569,0.062-1.154,0.095-1.755,0.095c-1.423,0-2.569-0.135-3.438-0.403s-1.549-0.664-2.039-1.186s-0.822-1.177-0.995-1.968
			c-0.175-0.79-0.276-1.69-0.308-2.703V72.401h-4.078V68.371z"/>
		<path fill="#007DA5" d="M280.604,59.029h5.406v5.121h-5.406V59.029z M280.604,68.371h5.406v24.516h-5.406V68.371z"/>
		<path fill="#007DA5" d="M289.945,68.371h5.88l6.212,18.825h0.096l5.975-18.825h5.596l-8.773,24.516h-6.069L289.945,68.371z"/>
		<path fill="#007DA5" d="M321.669,82.027c0,0.949,0.134,1.866,0.403,2.751c0.268,0.885,0.671,1.659,1.209,2.323
			c0.537,0.664,1.217,1.193,2.039,1.589s1.802,0.593,2.939,0.593c1.581,0,2.854-0.34,3.818-1.02c0.963-0.68,1.683-1.699,2.156-3.059
			h5.122c-0.284,1.327-0.774,2.513-1.47,3.557c-0.696,1.043-1.534,1.92-2.514,2.631c-0.98,0.712-2.079,1.25-3.295,1.612
			c-1.218,0.363-2.49,0.546-3.818,0.546c-1.928,0-3.635-0.316-5.121-0.948c-1.486-0.633-2.742-1.518-3.77-2.656
			c-1.027-1.138-1.802-2.496-2.324-4.077c-0.521-1.581-0.781-3.32-0.781-5.217c0-1.738,0.275-3.391,0.83-4.955
			c0.553-1.564,1.343-2.94,2.37-4.126c1.026-1.185,2.269-2.125,3.723-2.821c1.454-0.694,3.098-1.043,4.932-1.043
			c1.928,0,3.659,0.403,5.192,1.209c1.533,0.807,2.805,1.873,3.816,3.201c1.012,1.327,1.747,2.854,2.205,4.576
			c0.459,1.723,0.577,3.501,0.356,5.334H321.669z M334.283,78.472c-0.064-0.854-0.246-1.676-0.546-2.466
			c-0.301-0.79-0.712-1.478-1.233-2.063c-0.521-0.584-1.154-1.059-1.896-1.422c-0.743-0.363-1.572-0.546-2.489-0.546
			c-0.948,0-1.81,0.166-2.585,0.498c-0.774,0.332-1.438,0.791-1.991,1.375c-0.554,0.586-0.995,1.273-1.327,2.062
			c-0.332,0.791-0.515,1.645-0.546,2.562H334.283z"/>
	</g>
	<g>
		<path fill="#007DA5" d="M358.989,92.887V58.745h11.665c0.949,0,1.881,0.023,2.798,0.071c0.917,0.047,1.817,0.158,2.703,0.331
			c0.885,0.175,1.746,0.436,2.585,0.783c0.836,0.348,1.65,0.806,2.441,1.375c1.139,0.822,2.07,1.825,2.798,3.011
			c0.727,1.186,1.304,2.435,1.73,3.746c0.427,1.312,0.728,2.641,0.901,3.983c0.174,1.344,0.261,2.584,0.261,3.723
			c0,1.138-0.071,2.292-0.214,3.461c-0.143,1.17-0.371,2.316-0.688,3.438s-0.734,2.197-1.256,3.225s-1.179,1.968-1.969,2.821
			c-0.79,0.886-1.652,1.597-2.584,2.134c-0.933,0.538-1.913,0.957-2.939,1.257c-1.028,0.301-2.096,0.506-3.201,0.616
			c-1.107,0.111-2.229,0.166-3.367,0.166H358.989z M362.214,90.137h7.729c1.453,0,2.821-0.087,4.102-0.261s2.584-0.608,3.912-1.305
			c1.139-0.568,2.07-1.343,2.798-2.323c0.728-0.979,1.304-2.047,1.731-3.201c0.426-1.153,0.727-2.362,0.9-3.627
			s0.261-2.481,0.261-3.651c0-1.233-0.079-2.489-0.237-3.771c-0.158-1.28-0.459-2.496-0.9-3.65
			c-0.443-1.154-1.043-2.213-1.803-3.178c-0.758-0.964-1.738-1.762-2.939-2.395c-1.012-0.537-2.213-0.885-3.604-1.043
			c-1.393-0.158-2.799-0.237-4.221-0.237h-7.729V90.137z"/>
		<path fill="#007DA5" d="M394.838,92.887V58.745h3.225v34.142H394.838z"/>
		<path fill="#007DA5" d="M417.836,75.199l10.289-16.454h3.746l-12.375,19.252v14.89h-3.225V78.234l-12.188-19.489h3.699
			L417.836,75.199z"/>
		<path fill="#007DA5" d="M450.555,92.887V58.745h3.225v17.688l17.498-17.688h3.651l-13.467,13.609L477.3,92.887h-3.937
			l-14.226-18.541l-5.358,5.358v13.183H450.555z"/>
		<path fill="#007DA5" d="M482.325,62.965v-4.22h3.13v4.22H482.325z M482.468,92.887V68.323h2.846v24.563H482.468z"/>
		<path fill="#007DA5" d="M501.672,92.981c-0.349,0.063-0.807,0.174-1.376,0.332c-0.568,0.158-1.201,0.237-1.896,0.237
			c-1.423,0-2.506-0.355-3.248-1.067c-0.743-0.711-1.114-1.983-1.114-3.817V70.694h-3.462v-2.371h3.462v-6.828h2.845v6.828h4.6
			v2.371h-4.6v16.834c0,0.601,0.016,1.122,0.048,1.564c0.031,0.443,0.126,0.807,0.284,1.091c0.158,0.285,0.403,0.49,0.735,0.616
			c0.332,0.127,0.798,0.19,1.398,0.19c0.38,0,0.767-0.031,1.162-0.095c0.395-0.063,0.782-0.143,1.162-0.237V92.981z"/>
	</g>
</g>
</svg>
