<?xml version="1.0" encoding="utf-8"?>
<!-- Generator: Adobe Illustrator 17.1.0, SVG Export Plug-In . SVG Version: 6.00 Build 0)  -->
<!DOCTYPE svg PUBLIC "-//W3C//DTD SVG 1.1//EN" "http://www.w3.org/Graphics/SVG/1.1/DTD/svg11.dtd">
<svg version="1.1" id="Layer_1" xmlns="http://www.w3.org/2000/svg" xmlns:xlink="http://www.w3.org/1999/xlink" x="0px" y="0px"
	 width="13px" height="166.1px" viewBox="0 0 13 166.1" enable-background="new 0 0 13 166.1" xml:space="preserve">
<polygon fill="#00AFD1" points="1.4,13.4 0,12 5.2,6.6 0.1,1.4 1.5,0 8,6.6 "/>
<polygon fill="#FFFFFF" points="1.4,164.7 0,163.4 5.2,158 0.1,152.8 1.5,151.4 8,158 "/>
</svg>
