<?xml version="1.0" encoding="utf-8"?>
<!-- Generator: Adobe Illustrator 17.1.0, SVG Export Plug-In . SVG Version: 6.00 Build 0)  -->
<!DOCTYPE svg PUBLIC "-//W3C//DTD SVG 1.1//EN" "http://www.w3.org/Graphics/SVG/1.1/DTD/svg11.dtd">
<svg version="1.1" id="Layer_1" xmlns="http://www.w3.org/2000/svg" xmlns:xlink="http://www.w3.org/1999/xlink" x="0px" y="0px"
	 width="32px" height="495.9px" viewBox="0 0 32 495.9" enable-background="new 0 0 32 495.9" xml:space="preserve">
<path fill="#00AFD1" d="M22.8,7.7h-4.9V0h-5.7v7.7h-5L15,15L22.8,7.7z M29,17.3l-4.8-3.2h-2.9l5.1,3.9h-5.3c-0.2,0-0.3,0.1-0.4,0.2
	l-1.2,3.4h-9l-1.2-3.4C9.2,18.1,9.1,18,8.9,18H3.6l5.1-3.9H5.8L1,17.3c-0.7,0.4-1.1,1.4-0.9,2.2l0.8,4.6c0.2,0.8,1,1.4,1.9,1.4h24.5
	c0.8,0,1.7-0.6,1.9-1.4l0.8-4.6C30.1,18.7,29.7,17.7,29,17.3"/>
<path fill="#FFFFFF" d="M22.8,474h-4.9v-7.7h-5.7v7.7h-5l7.8,7.3L22.8,474z M29,483.6l-4.8-3.2h-2.9l5.1,3.9h-5.3
	c-0.2,0-0.3,0.1-0.4,0.2l-1.2,3.4h-9l-1.2-3.4c-0.1-0.1-0.2-0.2-0.4-0.2H3.6l5.1-3.9H5.8L1,483.6c-0.7,0.4-1.1,1.4-0.9,2.2l0.8,4.6
	c0.2,0.8,1,1.4,1.9,1.4h24.5c0.8,0,1.7-0.6,1.9-1.4l0.8-4.6C30.1,485,29.7,484.1,29,483.6"/>
</svg>
