<?xml version="1.0" encoding="utf-8"?>
<!-- Generator: Adobe Illustrator 15.1.0, SVG Export Plug-In  -->
<!DOCTYPE svg PUBLIC "-//W3C//DTD SVG 1.1//EN" "http://www.w3.org/Graphics/SVG/1.1/DTD/svg11.dtd" [
	<!ENTITY ns_flows "http://ns.adobe.com/Flows/1.0/">
]>
<svg version="1.1"
	 xmlns="http://www.w3.org/2000/svg" xmlns:xlink="http://www.w3.org/1999/xlink" xmlns:a="http://ns.adobe.com/AdobeSVGViewerExtensions/3.0/"
	 x="0px" y="0px" width="39px" height="39px" viewBox="0 0 39 39" overflow="visible" enable-background="new 0 0 39 39"
	 xml:space="preserve">
<defs>
</defs>
<path fill="#FFFFFF" d="M17.5,35c9.664,0,17.498-7.832,17.498-17.5C34.998,7.84,27.164,0,17.5,0H0v17.5C0,27.168,7.836,35,17.5,35"
	/>
<path fill="#007DA5" d="M17.355,11.061h-0.008v-0.002c-0.473,0-0.914-0.084-1.32-0.25l0,0h-0.002
	c-0.068-0.029-0.137-0.059-0.197-0.088l-0.021-0.012c-0.322-0.16-0.617-0.375-0.883-0.643h-0.002l0,0l-0.004-0.004l-0.029-0.029
	c-0.08-0.084-0.158-0.17-0.229-0.258l-0.002-0.002L14.643,9.75c-0.07-0.09-0.139-0.186-0.201-0.283
	c-0.342-0.543-0.514-1.166-0.514-1.865c0-0.475,0.082-0.918,0.248-1.328c0.166-0.408,0.414-0.781,0.744-1.117
	s0.699-0.588,1.107-0.758s0.852-0.254,1.328-0.254c0.223,0,0.447,0.023,0.672,0.07c0.219,0.043,0.434,0.111,0.646,0.201h0.002
	l0.004,0.002l0.002,0.002l0.002-0.002c0.049,0.021,0.107,0.049,0.17,0.08c0.057,0.027,0.115,0.059,0.168,0.09l0,0
	c0.279,0.16,0.531,0.359,0.748,0.596l0.002,0.002l0.004,0.004l0.002,0.002l0.004,0.006c0.039,0.043,0.076,0.082,0.111,0.125
	l0.002,0.002l0,0c0.035,0.043,0.074,0.092,0.113,0.143v0.002l0.008,0.008c0.184,0.244,0.338,0.512,0.461,0.807l0.006,0.01V6.291
	c0.021,0.051,0.045,0.113,0.07,0.18v0.002h0.002c0.016,0.045,0.035,0.104,0.057,0.178h0.002c0.09,0.307,0.135,0.625,0.135,0.951
	h0.004v0.012h-0.004c0,0.238-0.023,0.469-0.068,0.688l-0.008,0.041l-0.014,0.061l-0.002,0.014c-0.045,0.182-0.105,0.357-0.182,0.527
	v0.002l-0.004,0.01c-0.023,0.053-0.049,0.105-0.074,0.156s-0.053,0.105-0.086,0.162c-0.148,0.271-0.33,0.52-0.539,0.744
	c-0.15,0.164-0.32,0.314-0.506,0.443c-0.182,0.127-0.379,0.236-0.588,0.326v0.002c-0.209,0.088-0.426,0.156-0.65,0.203
	S17.578,11.061,17.355,11.061 M14.193,17.389L12.893,17.1c-0.223-0.049-0.373-0.246-0.373-0.465h-0.002v-2.98
	c0-0.264,0.213-0.479,0.479-0.479h7.264c0.264,0,0.477,0.215,0.477,0.479v0.012v14.98c0,0.266-0.213,0.48-0.477,0.48h-0.012h-5.576
	c-0.264,0-0.479-0.215-0.479-0.48V17.389z"/>
</svg>
